<?xml version="1.0" encoding="UTF-8" standalone="no"?>
<svg
   xmlns:dc="http://purl.org/dc/elements/1.1/"
   xmlns:cc="http://web.resource.org/cc/"
   xmlns:rdf="http://www.w3.org/1999/02/22-rdf-syntax-ns#"
   xmlns:svg="http://www.w3.org/2000/svg"
   xmlns="http://www.w3.org/2000/svg"
   xmlns:sodipodi="http://sodipodi.sourceforge.net/DTD/sodipodi-0.dtd"
   xmlns:inkscape="http://www.inkscape.org/namespaces/inkscape"
   width="213.99001"
   height="96.790001"
   id="svg2"
   sodipodi:version="0.32"
   inkscape:version="0.44.1"
   sodipodi:docname="PDwithOutside.svg"
   sodipodi:docbase="C:\Documents and Settings\Owner\My Documents\School\GT Examples"
   version="1.0">
  <metadata
     id="metadata117">
    <rdf:RDF>
      <cc:Work
         rdf:about="">
        <dc:format>image/svg+xml</dc:format>
        <dc:type
           rdf:resource="http://purl.org/dc/dcmitype/StillImage" />
      </cc:Work>
    </rdf:RDF>
  </metadata>
  <sodipodi:namedview
     inkscape:window-height="573"
     inkscape:window-width="853"
     inkscape:pageshadow="2"
     inkscape:pageopacity="0.0"
     guidetolerance="10.0"
     gridtolerance="10.0"
     objecttolerance="10.0"
     borderopacity="1.0"
     bordercolor="#666666"
     pagecolor="#ffffff"
     id="base"
     width="213.99px"
     height="96.79px"
     inkscape:zoom="3.6228465"
     inkscape:cx="105.994"
     inkscape:cy="47.8965"
     inkscape:window-x="132"
     inkscape:window-y="161"
     inkscape:current-layer="svg2" />
  <defs
     id="defs4">
    <marker
       id="ArrowEnd"
       viewBox="0 0 10 10"
       refX="0"
       refY="5"
       markerUnits="strokeWidth"
       markerWidth="4"
       markerHeight="3"
       orient="auto">
      <path
         d="M 0,0 L 10,5 L 0,10 L 0,0 z "
         id="path7" />
    </marker>
    <marker
       id="ArrowStart"
       viewBox="0 0 10 10"
       refX="10"
       refY="5"
       markerUnits="strokeWidth"
       markerWidth="4"
       markerHeight="3"
       orient="auto">
      <path
         d="M 10,0 L 0,5 L 10,10 L 10,0 z "
         id="path10" />
    </marker>
  </defs>
  <g
     id="g12">
    <path
       style="fill:none;stroke:black;stroke-width:0.79701102"
       d="M 120.148,10.215 L 205.188,52.7339"
       id="path14" />
    <path
       style="fill:black;stroke:none"
       d="M 172.883,24.265 C 172.883,22.672 171.824,21.601 170.336,21.601 C 168.18,21.601 165.984,23.847 165.984,26.1559 C 165.984,27.797 167.102,28.797 168.539,28.797 C 170.652,28.797 172.883,26.629 172.883,24.265 z M 168.578,28.5 C 167.59,28.5 166.887,27.699 166.887,26.39 C 166.887,25.957 167.024,24.511 167.797,23.351 C 168.484,22.324 169.469,21.804 170.258,21.804 C 171.078,21.804 171.981,22.3589 171.981,23.836 C 171.981,24.547 171.711,26.094 170.719,27.312 C 170.238,27.914 169.418,28.5 168.578,28.5 z "
       id="path16" />
    <path
       style="fill:black;stroke:none"
       d="M 202.586,63.867 L 202.336,63.867 C 202.289,64.152 202.219,64.578 202.117,64.722 C 202.051,64.797 201.387,64.797 201.164,64.797 L 199.359,64.797 L 200.422,63.785 C 201.988,62.429 202.59,61.894 202.59,60.91 C 202.59,59.789 201.688,59 200.465,59 C 199.336,59 198.594,59.89 198.594,60.754 C 198.594,61.297 199.066,61.297 199.098,61.297 C 199.258,61.297 199.59,61.183 199.59,60.793 C 199.59,60.547 199.426,60.301 199.098,60.301 C 199.027,60.301 199.008,60.301 198.981,60.301 C 199.211,59.664 199.754,59.301 200.34,59.301 C 201.258,59.301 201.691,60.101 201.691,60.918 C 201.691,61.711 201.191,62.492 200.637,63.1089 L 198.707,65.23 C 198.598,65.336 198.598,65.3589 198.598,65.594 L 202.316,65.594 L 202.586,63.867 z "
       id="path18" />
    <path
       style="fill:black;stroke:none"
       d="M 205.086,65.601 C 205.086,64.914 204.844,64.504 204.461,64.504 C 204.141,64.504 203.945,64.761 203.945,65.051 C 203.945,65.328 204.141,65.597 204.469,65.597 C 204.586,65.597 204.715,65.558 204.816,65.469 C 204.844,65.449 204.856,65.441 204.863,65.441 C 204.871,65.441 204.883,65.449 204.883,65.597 C 204.883,66.3199 204.539,66.9059 204.211,67.23 C 204.106,67.336 204.106,67.355 204.106,67.387 C 204.106,67.453 204.152,67.492 204.203,67.492 C 204.309,67.492 205.086,66.738 205.086,65.594 L 205.086,65.601 z "
       id="path20" />
    <path
       style="fill:black;stroke:none"
       d="M 211.984,63.867 L 211.734,63.867 C 211.688,64.152 211.617,64.578 211.516,64.722 C 211.449,64.797 210.785,64.797 210.563,64.797 L 208.758,64.797 L 209.82,63.785 C 211.387,62.429 211.988,61.894 211.988,60.91 C 211.988,59.789 211.086,59 209.863,59 C 208.734,59 207.992,59.89 207.992,60.754 C 207.992,61.297 208.465,61.297 208.496,61.297 C 208.656,61.297 208.988,61.183 208.988,60.793 C 208.988,60.547 208.824,60.301 208.496,60.301 C 208.426,60.301 208.406,60.301 208.379,60.301 C 208.609,59.664 209.152,59.301 209.738,59.301 C 210.656,59.301 211.09,60.101 211.09,60.918 C 211.09,61.711 210.59,62.492 210.035,63.1089 L 208.106,65.23 C 207.996,65.336 207.996,65.3589 207.996,65.594 L 211.715,65.594 L 211.984,63.867 z "
       id="path22" />
    <path
       style="fill:none;stroke:black;stroke-width:0.79701102"
       d="M 120.148,10.215 L 35.109,52.7339"
       id="path24" />
    <path
       style="fill:black;stroke:none"
       d="M 74.555,21.699 C 74.555,21.672 74.535,21.601 74.445,21.601 C 74.418,21.601 74.406,21.6089 74.297,21.715 L 73.602,22.457 C 73.516,22.324 73.055,21.597 71.949,21.597 C 69.731,21.597 67.488,23.785 67.488,26.082 C 67.488,27.715 68.66,28.793 70.184,28.793 C 71.047,28.793 71.805,28.3979 72.332,27.9449 C 73.258,27.137 73.426,26.2339 73.426,26.207 C 73.426,26.1089 73.328,26.1089 73.309,26.1089 C 73.25,26.1089 73.203,26.129 73.18,26.207 C 73.09,26.492 72.863,27.1949 72.176,27.7729 C 71.488,28.328 70.863,28.496 70.344,28.496 C 69.449,28.496 68.391,27.98 68.391,26.433 C 68.391,25.871 68.598,24.261 69.594,23.101 C 70.199,22.3979 71.137,21.902 72.024,21.902 C 73.039,21.902 73.625,22.664 73.625,23.812 C 73.625,24.207 73.598,24.215 73.598,24.316 C 73.598,24.414 73.707,24.414 73.746,24.414 C 73.875,24.414 73.875,24.394 73.926,24.219 L 74.555,21.699 z "
       id="path26" />
    <path
       style="fill:none;stroke:black;stroke-width:0.79701102"
       d="M 120.148,10.215 L 120.148,52.7339"
       id="path28" />
    <path
       style="fill:black;stroke:none"
       d="M 124.465,34.133 C 124.367,34.519 124.348,34.601 123.563,34.601 C 123.395,34.601 123.285,34.601 123.285,34.785 C 123.285,34.8979 123.371,34.8979 123.563,34.8979 L 126.856,34.8979 C 128.922,34.8979 130.883,32.801 130.883,30.621 C 130.883,29.219 130.039,28.105 128.547,28.105 L 125.207,28.105 C 125.02,28.105 124.91,28.105 124.91,28.289 C 124.91,28.402 124.996,28.402 125.195,28.402 C 125.324,28.402 125.5,28.41 125.621,28.422 C 125.777,28.441 125.84,28.469 125.84,28.578 C 125.84,28.617 125.832,28.644 125.801,28.765 L 124.465,34.133 z M 126.606,28.7809 C 126.691,28.433 126.711,28.402 127.137,28.402 L 128.191,28.402 C 129.156,28.402 129.977,28.929 129.977,30.25 C 129.977,30.738 129.781,32.375 128.941,33.472 C 128.656,33.84 127.879,34.597 126.664,34.597 L 125.551,34.597 C 125.414,34.597 125.395,34.597 125.336,34.597 C 125.238,34.59 125.211,34.578 125.211,34.5 C 125.211,34.472 125.211,34.453 125.258,34.2729 L 126.606,28.7809 z "
       id="path30" />
    <path
       style="fill:white;stroke:none"
       d="M 119.168,10.16 L 119.168,9.16797 L 121.156,9.16797 L 121.156,11.1559 L 119.168,11.1559"
       id="path32" />
    <path
       style="fill:none;stroke:black;stroke-width:0.39850599"
       d="M 121.383,10.16 C 121.383,9.48798 120.84,8.94495 120.168,8.94495 C 119.496,8.94495 118.953,9.48798 118.953,10.16 C 118.953,10.832 119.496,11.375 120.168,11.375 C 120.84,11.375 121.383,10.832 121.383,10.16 z "
       id="path34" />
    <path
       style="fill:black;stroke:none"
       d="M 120.586,0.257996 C 120.586,0.0229492 120.586,0 120.363,0 C 119.758,0.596985 118.891,0.596985 118.578,0.596985 L 118.578,0.893982 C 118.777,0.893982 119.367,0.893982 119.891,0.647949 L 119.891,5.81598 C 119.891,6.172 119.863,6.29297 118.961,6.29297 L 118.641,6.29297 L 118.641,6.58997 C 118.988,6.56195 119.856,6.56195 120.254,6.56195 C 120.648,6.56195 121.516,6.56195 121.867,6.58997 L 121.867,6.29297 L 121.543,6.29297 C 120.625,6.29297 120.598,6.18695 120.598,5.81995 L 120.586,0.257996 z "
       id="path36" />
    <path
       style="fill:none;stroke:black;stroke-width:0.79701102"
       d="M 35.109,52.7339 L 63.453,81.078"
       id="path38" />
    <path
       style="fill:black;stroke:none"
       d="M 57.227,57.211 C 57.227,57.203 57.227,57.101 57.098,57.101 C 56.949,57.101 56.004,57.187 55.836,57.203 C 55.758,57.211 55.699,57.258 55.699,57.383 C 55.699,57.496 55.785,57.496 55.938,57.496 C 56.414,57.496 56.434,57.562 56.434,57.664 L 56.406,57.863 L 55.809,60.226 C 55.633,59.863 55.344,59.594 54.895,59.594 C 53.731,59.594 52.496,61.051 52.496,62.504 C 52.496,63.437 53.043,64.09 53.82,64.09 C 54.016,64.09 54.516,64.054 55.113,63.355 C 55.191,63.765 55.539,64.09 56.016,64.09 C 56.363,64.09 56.59,63.863 56.75,63.547 C 56.918,63.191 57.047,62.586 57.047,62.5699 C 57.047,62.472 56.957,62.472 56.93,62.472 C 56.832,62.472 56.82,62.511 56.793,62.652 C 56.625,63.301 56.445,63.894 56.039,63.894 C 55.774,63.894 55.742,63.637 55.742,63.437 C 55.742,63.199 55.762,63.129 55.801,62.961 L 57.227,57.211 z M 55.152,62.8199 C 55.106,63 55.106,63.019 54.953,63.187 C 54.516,63.738 54.106,63.8979 53.824,63.8979 C 53.324,63.8979 53.188,63.347 53.188,62.957 C 53.188,62.457 53.504,61.226 53.734,60.765 C 54.043,60.176 54.492,59.804 54.891,59.804 C 55.539,59.804 55.676,60.625 55.676,60.683 C 55.676,60.742 55.656,60.801 55.648,60.851 L 55.152,62.8199 z "
       id="path40" />
    <path
       style="fill:black;stroke:none"
       d="M 60.883,90.722 C 60.883,89.933 60.836,89.144 60.484,88.41 C 60.027,87.465 59.211,87.304 58.789,87.304 C 58.191,87.304 57.465,87.562 57.055,88.48 C 56.738,89.16 56.688,89.929 56.688,90.722 C 56.688,91.461 56.727,92.351 57.133,93.101 C 57.559,93.8979 58.289,94.097 58.777,94.097 C 59.313,94.097 60.074,93.89 60.512,92.953 C 60.828,92.2729 60.879,91.504 60.879,90.722 L 60.883,90.722 z M 58.777,93.902 C 58.383,93.902 57.781,93.6559 57.598,92.703 C 57.488,92.1089 57.488,91.1949 57.488,90.6089 C 57.488,89.976 57.488,89.3199 57.566,88.785 C 57.758,87.605 58.524,87.515 58.777,87.515 C 59.113,87.515 59.785,87.6949 59.977,88.676 C 60.078,89.23 60.078,89.9839 60.078,90.6089 C 60.078,91.351 60.078,92.027 59.969,92.664 C 59.816,93.605 59.238,93.902 58.777,93.902 z "
       id="path42" />
    <path
       style="fill:black;stroke:none"
       d="M 63.383,93.902 C 63.383,93.215 63.141,92.804 62.758,92.804 C 62.438,92.804 62.242,93.062 62.242,93.351 C 62.242,93.629 62.438,93.8979 62.766,93.8979 C 62.883,93.8979 63.012,93.8589 63.113,93.769 C 63.141,93.75 63.152,93.742 63.16,93.742 C 63.168,93.742 63.18,93.75 63.18,93.8979 C 63.18,94.621 62.836,95.207 62.508,95.5309 C 62.402,95.637 62.402,95.6559 62.402,95.687 C 62.402,95.754 62.449,95.793 62.5,95.793 C 62.606,95.793 63.383,95.039 63.383,93.894 L 63.383,93.902 z "
       id="path44" />
    <path
       style="fill:black;stroke:none"
       d="M 66.063,92.301 L 68.68,92.301 L 68.68,93.144 C 68.68,93.492 68.66,93.597 67.949,93.597 L 67.75,93.597 L 67.75,93.894 C 68.156,93.867 68.676,93.867 69.094,93.867 C 69.512,93.867 70.039,93.867 70.445,93.894 L 70.445,93.597 L 70.238,93.597 C 69.508,93.597 69.484,93.492 69.484,93.144 L 69.484,92.301 L 70.477,92.301 L 70.477,92.004 L 69.484,92.004 L 69.484,87.469 C 69.484,87.269 69.484,87.211 69.328,87.211 C 69.238,87.211 69.211,87.211 69.133,87.328 L 66.074,92.004 L 66.063,92.301 z M 68.774,92 L 66.344,92 L 68.774,88.2339 L 68.774,92 z "
       id="path46" />
    <path
       style="fill:none;stroke:black;stroke-width:0.79701102"
       d="M 35.109,52.7339 L 6.76599,81.078"
       id="path48" />
    <path
       style="fill:black;stroke:none"
       d="M 17.828,60.199 C 17.664,60.199 17.52,60.199 17.371,60.34 C 17.207,60.492 17.188,60.664 17.188,60.7339 C 17.188,60.976 17.359,61.09 17.543,61.09 C 17.82,61.09 18.082,60.851 18.082,60.453 C 18.082,59.965 17.621,59.594 16.922,59.594 C 15.594,59.594 14.285,61.011 14.285,62.414 C 14.285,63.304 14.863,64.09 15.902,64.09 C 17.328,64.09 18.168,63.043 18.168,62.926 C 18.168,62.867 18.109,62.797 18.047,62.797 C 18,62.797 17.977,62.816 17.918,62.894 C 17.121,63.887 16.02,63.887 15.898,63.887 C 15.262,63.887 14.992,63.3979 14.992,62.797 C 14.992,62.387 15.191,61.414 15.539,60.793 C 15.852,60.222 16.406,59.793 16.965,59.793 C 17.309,59.793 17.691,59.922 17.832,60.191 L 17.828,60.199 z "
       id="path50" />
    <path
       style="fill:black;stroke:none"
       d="M 2.47299,90.4059 C 3.297,90.14 3.883,89.449 3.883,88.668 C 3.883,87.8589 3.008,87.304 2.05099,87.304 C 1.047,87.304 0.289001,87.879 0.289001,88.605 C 0.289001,88.918 0.503998,89.101 0.789001,89.101 C 1.09,89.101 1.289,88.887 1.289,88.597 C 1.289,88.105 0.824005,88.105 0.675995,88.105 C 0.987991,87.633 1.65199,87.508 2.02,87.508 C 2.42999,87.508 2.98799,87.726 2.98799,88.621 C 2.98799,88.738 2.96899,89.316 2.707,89.754 C 2.40199,90.23 2.05901,90.261 1.80499,90.269 C 1.72701,90.277 1.481,90.297 1.41,90.297 C 1.332,90.304 1.26199,90.312 1.26199,90.3979 C 1.26199,90.492 1.328,90.492 1.496,90.492 L 1.92599,90.492 C 2.731,90.492 3.09399,91.168 3.09399,92.144 C 3.09399,93.5 2.414,93.789 1.981,93.789 C 1.55901,93.789 0.819992,93.629 0.472992,93.058 C 0.800995,93.105 1.09399,92.8979 1.09399,92.5309 C 1.09399,92.187 0.832001,91.996 0.546997,91.996 C 0.313004,91.996 0,92.133 0,92.558 C 0,93.4449 0.917999,94.09 1.992,94.09 C 3.19499,94.09 4.09399,93.191 4.09399,92.183 C 4.09399,91.375 3.48799,90.605 2.48399,90.3979 L 2.47299,90.4059 z "
       id="path52" />
    <path
       style="fill:black;stroke:none"
       d="M 6.586,93.902 C 6.586,93.215 6.34399,92.804 5.961,92.804 C 5.64099,92.804 5.44499,93.062 5.44499,93.351 C 5.44499,93.629 5.64099,93.8979 5.96899,93.8979 C 6.086,93.8979 6.215,93.8589 6.31599,93.769 C 6.34399,93.75 6.356,93.742 6.36299,93.742 C 6.371,93.742 6.383,93.75 6.383,93.8979 C 6.383,94.621 6.039,95.207 5.711,95.5309 C 5.606,95.637 5.606,95.6559 5.606,95.687 C 5.606,95.754 5.65199,95.793 5.703,95.793 C 5.80901,95.793 6.586,95.039 6.586,93.894 L 6.586,93.902 z "
       id="path54" />
    <path
       style="fill:black;stroke:none"
       d="M 11.973,90.4059 C 12.797,90.14 13.383,89.449 13.383,88.668 C 13.383,87.8589 12.508,87.304 11.551,87.304 C 10.547,87.304 9.789,87.879 9.789,88.605 C 9.789,88.918 10.004,89.101 10.289,89.101 C 10.59,89.101 10.789,88.887 10.789,88.597 C 10.789,88.105 10.324,88.105 10.176,88.105 C 10.488,87.633 11.152,87.508 11.52,87.508 C 11.93,87.508 12.488,87.726 12.488,88.621 C 12.488,88.738 12.469,89.316 12.207,89.754 C 11.902,90.23 11.559,90.261 11.305,90.269 C 11.227,90.277 10.981,90.297 10.91,90.297 C 10.832,90.304 10.762,90.312 10.762,90.3979 C 10.762,90.492 10.828,90.492 10.996,90.492 L 11.426,90.492 C 12.231,90.492 12.594,91.168 12.594,92.144 C 12.594,93.5 11.914,93.789 11.481,93.789 C 11.059,93.789 10.32,93.629 9.97299,93.058 C 10.301,93.105 10.594,92.8979 10.594,92.5309 C 10.594,92.187 10.332,91.996 10.047,91.996 C 9.813,91.996 9.5,92.133 9.5,92.558 C 9.5,93.4449 10.418,94.09 11.492,94.09 C 12.695,94.09 13.594,93.191 13.594,92.183 C 13.594,91.375 12.988,90.605 11.984,90.3979 L 11.973,90.4059 z "
       id="path56" />
    <path
       style="fill:white;stroke:none"
       d="M 34.086,52.64 L 34.086,51.6479 L 36.074,51.6479 L 36.074,53.637 L 34.086,53.637"
       id="path58" />
    <path
       style="fill:black;stroke:none"
       d="M 36.5,52.64 C 36.5,51.8589 35.867,51.226 35.086,51.226 C 34.305,51.226 33.672,51.8589 33.672,52.64 C 33.672,53.422 34.305,54.054 35.086,54.054 C 35.867,54.054 36.5,53.422 36.5,52.64"
       id="path60" />
    <path
       style="fill:none;stroke:black;stroke-width:0.79701102"
       d="M 120.148,52.7339 L 148.492,81.078"
       id="path62" />
    <path
       style="fill:black;stroke:none"
       d="M 142.227,57.211 C 142.227,57.203 142.227,57.101 142.098,57.101 C 141.949,57.101 141.004,57.187 140.836,57.203 C 140.758,57.211 140.699,57.258 140.699,57.383 C 140.699,57.496 140.785,57.496 140.938,57.496 C 141.414,57.496 141.434,57.562 141.434,57.664 L 141.406,57.863 L 140.809,60.226 C 140.633,59.863 140.344,59.594 139.895,59.594 C 138.731,59.594 137.496,61.051 137.496,62.504 C 137.496,63.437 138.043,64.09 138.82,64.09 C 139.016,64.09 139.516,64.054 140.113,63.355 C 140.191,63.765 140.539,64.09 141.016,64.09 C 141.363,64.09 141.59,63.863 141.75,63.547 C 141.918,63.191 142.047,62.586 142.047,62.5699 C 142.047,62.472 141.957,62.472 141.93,62.472 C 141.832,62.472 141.82,62.511 141.793,62.652 C 141.625,63.301 141.445,63.894 141.039,63.894 C 140.774,63.894 140.742,63.637 140.742,63.437 C 140.742,63.199 140.762,63.129 140.801,62.961 L 142.227,57.211 z M 140.152,62.8199 C 140.106,63 140.106,63.019 139.953,63.187 C 139.516,63.738 139.106,63.8979 138.824,63.8979 C 138.324,63.8979 138.188,63.347 138.188,62.957 C 138.188,62.457 138.504,61.226 138.734,60.765 C 139.043,60.176 139.492,59.804 139.891,59.804 C 140.539,59.804 140.676,60.625 140.676,60.683 C 140.676,60.742 140.656,60.801 140.648,60.851 L 140.152,62.8199 z "
       id="path64" />
    <path
       style="fill:black;stroke:none"
       d="M 144.184,87.558 C 144.184,87.324 144.184,87.301 143.961,87.301 C 143.356,87.8979 142.488,87.8979 142.176,87.8979 L 142.176,88.1949 C 142.375,88.1949 142.965,88.1949 143.488,87.949 L 143.488,93.117 C 143.488,93.472 143.461,93.594 142.559,93.594 L 142.238,93.594 L 142.238,93.89 C 142.586,93.863 143.453,93.863 143.852,93.863 C 144.246,93.863 145.113,93.863 145.465,93.89 L 145.465,93.594 L 145.141,93.594 C 144.223,93.594 144.195,93.488 144.195,93.121 L 144.184,87.558 z "
       id="path66" />
    <path
       style="fill:black;stroke:none"
       d="M 148.285,93.902 C 148.285,93.215 148.043,92.804 147.66,92.804 C 147.34,92.804 147.145,93.062 147.145,93.351 C 147.145,93.629 147.34,93.8979 147.668,93.8979 C 147.785,93.8979 147.914,93.8589 148.016,93.769 C 148.043,93.75 148.055,93.742 148.063,93.742 C 148.07,93.742 148.082,93.75 148.082,93.8979 C 148.082,94.621 147.738,95.207 147.41,95.5309 C 147.305,95.637 147.305,95.6559 147.305,95.687 C 147.305,95.754 147.352,95.793 147.402,95.793 C 147.508,95.793 148.285,95.039 148.285,93.894 L 148.285,93.902 z "
       id="path68" />
    <path
       style="fill:black;stroke:none"
       d="M 153.684,87.558 C 153.684,87.324 153.684,87.301 153.461,87.301 C 152.856,87.8979 151.988,87.8979 151.676,87.8979 L 151.676,88.1949 C 151.875,88.1949 152.465,88.1949 152.988,87.949 L 152.988,93.117 C 152.988,93.472 152.961,93.594 152.059,93.594 L 151.738,93.594 L 151.738,93.89 C 152.086,93.863 152.953,93.863 153.352,93.863 C 153.746,93.863 154.613,93.863 154.965,93.89 L 154.965,93.594 L 154.641,93.594 C 153.723,93.594 153.695,93.488 153.695,93.121 L 153.684,87.558 z "
       id="path70" />
    <path
       style="fill:none;stroke:black;stroke-width:0.79701102"
       d="M 120.148,52.7339 L 91.805,81.078"
       id="path72" />
    <path
       style="fill:black;stroke:none"
       d="M 102.828,60.199 C 102.664,60.199 102.52,60.199 102.371,60.34 C 102.207,60.492 102.188,60.664 102.188,60.7339 C 102.188,60.976 102.359,61.09 102.543,61.09 C 102.82,61.09 103.082,60.851 103.082,60.453 C 103.082,59.965 102.621,59.594 101.922,59.594 C 100.594,59.594 99.285,61.011 99.285,62.414 C 99.285,63.304 99.863,64.09 100.902,64.09 C 102.328,64.09 103.168,63.043 103.168,62.926 C 103.168,62.867 103.109,62.797 103.047,62.797 C 103,62.797 102.977,62.816 102.918,62.894 C 102.121,63.887 101.02,63.887 100.898,63.887 C 100.262,63.887 99.992,63.3979 99.992,62.797 C 99.992,62.387 100.191,61.414 100.539,60.793 C 100.852,60.222 101.406,59.793 101.965,59.793 C 102.309,59.793 102.691,59.922 102.832,60.191 L 102.828,60.199 z "
       id="path74" />
    <path
       style="fill:black;stroke:none"
       d="M 84.965,92.301 L 87.582,92.301 L 87.582,93.144 C 87.582,93.492 87.563,93.597 86.852,93.597 L 86.652,93.597 L 86.652,93.894 C 87.059,93.867 87.578,93.867 87.996,93.867 C 88.414,93.867 88.941,93.867 89.348,93.894 L 89.348,93.597 L 89.141,93.597 C 88.41,93.597 88.387,93.492 88.387,93.144 L 88.387,92.301 L 89.379,92.301 L 89.379,92.004 L 88.387,92.004 L 88.387,87.469 C 88.387,87.269 88.387,87.211 88.231,87.211 C 88.141,87.211 88.113,87.211 88.035,87.328 L 84.977,92.004 L 84.965,92.301 z M 87.672,92 L 85.242,92 L 87.672,88.2339 L 87.672,92 z "
       id="path76" />
    <path
       style="fill:black;stroke:none"
       d="M 91.684,93.902 C 91.684,93.215 91.441,92.804 91.059,92.804 C 90.738,92.804 90.543,93.062 90.543,93.351 C 90.543,93.629 90.738,93.8979 91.066,93.8979 C 91.184,93.8979 91.313,93.8589 91.414,93.769 C 91.441,93.75 91.453,93.742 91.461,93.742 C 91.469,93.742 91.481,93.75 91.481,93.8979 C 91.481,94.621 91.137,95.207 90.809,95.5309 C 90.703,95.637 90.703,95.6559 90.703,95.687 C 90.703,95.754 90.75,95.793 90.801,95.793 C 90.906,95.793 91.684,95.039 91.684,93.894 L 91.684,93.902 z "
       id="path78" />
    <path
       style="fill:black;stroke:none"
       d="M 98.684,90.722 C 98.684,89.933 98.637,89.144 98.285,88.41 C 97.828,87.465 97.012,87.304 96.59,87.304 C 95.992,87.304 95.266,87.562 94.856,88.48 C 94.539,89.16 94.488,89.929 94.488,90.722 C 94.488,91.461 94.527,92.351 94.934,93.101 C 95.359,93.8979 96.09,94.097 96.578,94.097 C 97.113,94.097 97.875,93.89 98.313,92.953 C 98.629,92.2729 98.68,91.504 98.68,90.722 L 98.684,90.722 z M 96.578,93.902 C 96.184,93.902 95.582,93.6559 95.398,92.703 C 95.289,92.1089 95.289,91.1949 95.289,90.6089 C 95.289,89.976 95.289,89.3199 95.367,88.785 C 95.559,87.605 96.324,87.515 96.578,87.515 C 96.914,87.515 97.586,87.6949 97.777,88.676 C 97.879,89.23 97.879,89.9839 97.879,90.6089 C 97.879,91.351 97.879,92.027 97.77,92.664 C 97.617,93.605 97.039,93.902 96.578,93.902 z "
       id="path80" />
    <path
       style="fill:white;stroke:none"
       d="M 119.168,52.64 L 119.168,51.6479 L 121.156,51.6479 L 121.156,53.637 L 119.168,53.637"
       id="path82" />
    <path
       style="fill:black;stroke:none"
       d="M 121.582,52.64 C 121.582,51.8589 120.949,51.226 120.168,51.226 C 119.387,51.226 118.754,51.8589 118.754,52.64 C 118.754,53.422 119.387,54.054 120.168,54.054 C 120.949,54.054 121.582,53.422 121.582,52.64"
       id="path84" />
    <path
       style="fill:black;stroke:none"
       d="M 41.551,52.64 C 41.551,52.25 41.234,51.933 40.844,51.933 C 40.453,51.933 40.137,52.25 40.137,52.64 C 40.137,53.0309 40.453,53.347 40.844,53.347 C 41.234,53.347 41.551,53.0309 41.551,52.64"
       id="path86" />
    <path
       style="fill:black;stroke:none"
       d="M 47.191,52.64 C 47.191,52.25 46.875,51.933 46.484,51.933 C 46.094,51.933 45.777,52.25 45.777,52.64 C 45.777,53.0309 46.094,53.347 46.484,53.347 C 46.875,53.347 47.191,53.0309 47.191,52.64"
       id="path88" />
    <path
       style="fill:black;stroke:none"
       d="M 52.832,52.64 C 52.832,52.25 52.516,51.933 52.125,51.933 C 51.734,51.933 51.418,52.25 51.418,52.64 C 51.418,53.0309 51.734,53.347 52.125,53.347 C 52.516,53.347 52.832,53.0309 52.832,52.64"
       id="path90" />
    <path
       style="fill:black;stroke:none"
       d="M 58.473,52.64 C 58.473,52.25 58.156,51.933 57.766,51.933 C 57.375,51.933 57.059,52.25 57.059,52.64 C 57.059,53.0309 57.375,53.347 57.766,53.347 C 58.156,53.347 58.473,53.0309 58.473,52.64"
       id="path92" />
    <path
       style="fill:black;stroke:none"
       d="M 64.231,52.64 C 64.231,52.25 63.914,51.933 63.524,51.933 C 63.133,51.933 62.816,52.25 62.816,52.64 C 62.816,53.0309 63.133,53.347 63.524,53.347 C 63.914,53.347 64.231,53.0309 64.231,52.64"
       id="path94" />
    <path
       style="fill:black;stroke:none"
       d="M 69.871,52.64 C 69.871,52.25 69.555,51.933 69.164,51.933 C 68.774,51.933 68.457,52.25 68.457,52.64 C 68.457,53.0309 68.774,53.347 69.164,53.347 C 69.555,53.347 69.871,53.0309 69.871,52.64"
       id="path96" />
    <path
       style="fill:black;stroke:none"
       d="M 75.512,52.64 C 75.512,52.25 75.195,51.933 74.805,51.933 C 74.414,51.933 74.098,52.25 74.098,52.64 C 74.098,53.0309 74.414,53.347 74.805,53.347 C 75.195,53.347 75.512,53.0309 75.512,52.64"
       id="path98" />
    <path
       style="fill:black;stroke:none"
       d="M 81.152,52.64 C 81.152,52.25 80.836,51.933 80.445,51.933 C 80.055,51.933 79.738,52.25 79.738,52.64 C 79.738,53.0309 80.055,53.347 80.445,53.347 C 80.836,53.347 81.152,53.0309 81.152,52.64"
       id="path100" />
    <path
       style="fill:black;stroke:none"
       d="M 86.91,52.64 C 86.91,52.25 86.594,51.933 86.203,51.933 C 85.813,51.933 85.496,52.25 85.496,52.64 C 85.496,53.0309 85.813,53.347 86.203,53.347 C 86.594,53.347 86.91,53.0309 86.91,52.64"
       id="path102" />
    <path
       style="fill:black;stroke:none"
       d="M 92.551,52.64 C 92.551,52.25 92.234,51.933 91.844,51.933 C 91.453,51.933 91.137,52.25 91.137,52.64 C 91.137,53.0309 91.453,53.347 91.844,53.347 C 92.234,53.347 92.551,53.0309 92.551,52.64"
       id="path104" />
    <path
       style="fill:black;stroke:none"
       d="M 98.191,52.64 C 98.191,52.25 97.875,51.933 97.484,51.933 C 97.094,51.933 96.777,52.25 96.777,52.64 C 96.777,53.0309 97.094,53.347 97.484,53.347 C 97.875,53.347 98.191,53.0309 98.191,52.64"
       id="path106" />
    <path
       style="fill:black;stroke:none"
       d="M 103.828,52.64 C 103.828,52.25 103.512,51.933 103.121,51.933 C 102.731,51.933 102.414,52.25 102.414,52.64 C 102.414,53.0309 102.731,53.347 103.121,53.347 C 103.512,53.347 103.828,53.0309 103.828,52.64"
       id="path108" />
    <path
       style="fill:black;stroke:none"
       d="M 109.59,52.64 C 109.59,52.25 109.274,51.933 108.883,51.933 C 108.492,51.933 108.176,52.25 108.176,52.64 C 108.176,53.0309 108.492,53.347 108.883,53.347 C 109.274,53.347 109.59,53.0309 109.59,52.64"
       id="path110" />
    <path
       style="fill:black;stroke:none"
       d="M 115.231,52.64 C 115.231,52.25 114.914,51.933 114.524,51.933 C 114.133,51.933 113.816,52.25 113.816,52.64 C 113.816,53.0309 114.133,53.347 114.524,53.347 C 114.914,53.347 115.231,53.0309 115.231,52.64"
       id="path112" />
    <path
       style="fill:black;stroke:none"
       d="M 79.684,47.265 L 79.434,47.265 C 79.387,47.551 79.316,47.976 79.215,48.121 C 79.148,48.1949 78.484,48.1949 78.262,48.1949 L 76.457,48.1949 L 77.52,47.183 C 79.086,45.828 79.688,45.293 79.688,44.308 C 79.688,43.187 78.785,42.3979 77.563,42.3979 C 76.434,42.3979 75.691,43.289 75.691,44.152 C 75.691,44.6949 76.164,44.6949 76.195,44.6949 C 76.356,44.6949 76.688,44.582 76.688,44.191 C 76.688,43.9449 76.524,43.699 76.195,43.699 C 76.125,43.699 76.106,43.699 76.078,43.699 C 76.309,43.062 76.852,42.699 77.438,42.699 C 78.356,42.699 78.789,43.5 78.789,44.316 C 78.789,45.1089 78.289,45.89 77.734,46.508 L 75.805,48.629 C 75.695,48.7339 75.695,48.758 75.695,48.992 L 79.414,48.992 L 79.684,47.265 z "
       id="path114" />
  </g>
</svg>
